Exhaustive chart • pichor
…
    type == "minor" ~ case_when(
      grepl("\n", label, fixed = TRUE) ~ paste0(
        gsub("^(.*)\n(.*)$", "\\1m/\\2m", label), 
        " (", variant, ")"),
      TRUE ~ paste0(label, "m (", variant, ")")))) %>% 
  mutate(caption = gsub("\n", "/", caption, fixed = TRUE),
        caption = gsub(" (root)", "", caption, fixed = TRUE),
        caption = gsub(" (", "\n(", caption, fixed = TRUE)) %>% 
  mutate(caption = case_when(
    !grepl("(", caption, fixed = TRUE) ~ gsub("/", "\n", caption, fixed = TRUE),
    TRUE ~ caption
  )) %>% 
  arrange(tone, type, variant)
d_tones_chords
#> # A tibble: 72 x 7
#>      key tone  label    type  variant    keys      caption              
#>    <int> <fct> <chr>    <chr> <fct>      <list>    <chr>                
#>  1     1 C     C        major root       <dbl [3]> C                    
#>  2     1 C     C        major inversion1 <dbl [3]> "C\n(inversion1)"    
#>  3     1 C     C        major inversion2 <dbl [3]> "C\n(inversion2)"    
#>  4     1 C     C        minor root       <dbl [3]> Cm                   
#>  5     1 C     C        minor inversion1 <dbl [3]> "Cm\n(inversion1)"   
#>  6     1 C     C        minor inversion2 <dbl [3]> "Cm\n(inversion2)"   
#>  7     2 C#    "C#\nDb" major root       <dbl [3]> "C#\nDb"             
#>  8     2 C#    "C#\nDb" major inversion1 <dbl [3]> "C#/Db\n(inversion1)"
#>  9     2 C#    "C#\nDb" major inversion2 <dbl [3]> "C#/Db\n(inversion2)"
#> 10     2 C#    "C#\nDb" minor root       <dbl [3]> "C#m\nDbm"           
#> # … with 62 more rows
…
