Introduction • pichor
…
                        Mikkel Meyer Andersen

            2019-05-06

      introduction.Rmd

library(ggplot2)
library(dplyr)
library(pichor)

Built-in data with information about some of the keys on a piano:

keys_coords
#> # A tibble: 24 x 12
#>      key key_color   xmin  ymin   xmax  ymax layer tones label label_x
#>    <int> <chr>      <dbl> <dbl>  <dbl> <dbl> <dbl> <lis> <chr>   <dbl>
#>  1     1 white     0       0    0.0714     1     1 <chr… C      0.0357
#>  2     2 black     0.0536  0.45 0.0893     1     2 <chr… "C#\…  0.0714
#>  3     3 white     0.0714  0    0.143      1     1 <chr… D      0.107 
#>  4     4 black     0.125   0.45 0.161      1     2 <chr… "D#\…  0.143 
#>  5     5 white     0.143   0    0.214      1     1 <chr… E      0.179 
#>  6     6 white     0.214   0    0.286      1     1 <chr… F      0.25  
#>  7     7 black     0.268   0.45 0.304      1     2 <chr… "F#\…  0.286 
#>  8     8 white     0.286   0    0.357      1     1 <chr… G      0.321 
#>  9     9 black     0.339   0.45 0.375      1     2 <chr… "G#\…  0.357 
#> 10    10 white     0.357   0    0.429      1     1 <chr… A      0.393 
#> # … with 14 more rows, and 2 more variables: label_y <dbl>,
#> #   label_color <chr>
…
